%YAML 1.1
%TAG !u! tag:unity3d.com,2011:
--- !u!1001 &1260166257542892538
PrefabInstance:
  m_ObjectHideFlags: 0
  serializedVersion: 2
  m_Modification:
    m_TransformParent: {fileID: 0}
    m_Modifications:
    - target: {fileID: 775942492708042474, guid: ad81e25a2523adb4694eff0e6025c992,
        type: 3}
      propertyPath: m_Name
      value: PieceWhite
      objectReference: {fileID: 0}
    - target: {fileID: 1288253129325208886, guid: ad81e25a2523adb4694eff0e6025c992,
        type: 3}
      propertyPath: m_Materials.Array.data[0]
      value: 
      objectReference: {fileID: 2100000, guid: 6d3e49dc33805044ba665b3d77de9935, type: 2}
    - target: {fileID: 7547579853169192943, guid: ad81e25a2523adb4694eff0e6025c992,
        type: 3}
      propertyPath: m_RootOrder
      value: 0
      objectReference: {fileID: 0}
    - target: {fileID: 7547579853169192943, guid: ad81e25a2523adb4694eff0e6025c992,
        type: 3}
      propertyPath: m_LocalPosition.x
      value: 0
      objectReference: {fileID: 0}
    - target: {fileID: 7547579853169192943, guid: ad81e25a2523adb4694eff0e6025c992,
        type: 3}
      propertyPath: m_LocalPosition.y
      value: 0
      objectReference: {fileID: 0}
    - target: {fileID: 7547579853169192943, guid: ad81e25a2523adb4694eff0e6025c992,
        type: 3}
      propertyPath: m_LocalPosition.z
      value: 0
      objectReference: {fileID: 0}
    - target: {fileID: 7547579853169192943, guid: ad81e25a2523adb4694eff0e6025c992,
        type: 3}
      propertyPath: m_LocalRotation.w
      value: 1
      objectReference: {fileID: 0}
    - target: {fileID: 7547579853169192943, guid: ad81e25a2523adb4694eff0e6025c992,
        type: 3}
      propertyPath: m_LocalRotation.x
      value: -0
      objectReference: {fileID: 0}
    - target: {fileID: 7547579853169192943, guid: ad81e25a2523adb4694eff0e6025c992,
        type: 3}
      propertyPath: m_LocalRotation.y
      value: -0
      objectReference: {fileID: 0}
    - target: {fileID: 7547579853169192943, guid: ad81e25a2523adb4694eff0e6025c992,
        type: 3}
      propertyPath: m_LocalRotation.z
      value: -0
      objectReference: {fileID: 0}
    - target: {fileID: 7547579853169192943, guid: ad81e25a2523adb4694eff0e6025c992,
        type: 3}
      propertyPath: m_LocalEulerAnglesHint.x
      value: 0
      objectReference: {fileID: 0}
    - target: {fileID: 7547579853169192943, guid: ad81e25a2523adb4694eff0e6025c992,
        type: 3}
      propertyPath: m_LocalEulerAnglesHint.y
      value: 0
      objectReference: {fileID: 0}
    - target: {fileID: 7547579853169192943, guid: ad81e25a2523adb4694eff0e6025c992,
        type: 3}
      propertyPath: m_LocalEulerAnglesHint.z
      value: 0
      objectReference: {fileID: 0}
    m_RemovedComponents: []
  m_SourcePrefab: {fileID: 100100000, guid: ad81e25a2523adb4694eff0e6025c992, type: 3}
